…
## Function examples

``` r
library(covidutils)
```

### Import ECDC data

``` r
df_ecdc <- get_ecdc_data()

df_ecdc
#> # A tibble: 48,943 x 11
#>    date       country_ecdc geoid country continent region iso_a3 cases deaths
#>    <date>     <chr>        <chr> <chr>   <chr>     <chr>  <chr>  <dbl>  <dbl>
#>  1 2019-12-30 Afghanistan  AF    Afghan… Asia      South… AFG        0      0
#>  2 2019-12-30 Algeria      DZ    Algeria Africa    North… DZA        0      0
#>  3 2019-12-30 Armenia      AM    Armenia Asia      Weste… ARM        0      0
#>  4 2019-12-30 Australia    AU    Austra… Oceania   Austr… AUS        0      0
#>  5 2019-12-30 Austria      AT    Austria Europe    Weste… AUT        0      0
#>  6 2019-12-30 Azerbaijan   AZ    Azerba… Asia      Weste… AZE        0      0
#>  7 2019-12-30 Bahrain      BH    Bahrain Asia      Weste… BHR        0      0
#>  8 2019-12-30 Belarus      BY    Belarus Europe    Easte… BLR        0      0
#>  9 2019-12-30 Belgium      BE    Belgium Europe    Weste… BEL        0      0
#> 10 2019-12-30 Brazil       BR    Brazil  Americas  South… BRA        0      0
#> # … with 48,933 more rows, and 2 more variables: population_2019 <dbl>,
#> #   source <chr>
```
